
-75.32 Data i czas 2018-11-03T16:33:22.056402
-400.0 Data i czas 2018-11-03T16:33:22.057401700
-546.6 Data i czas 2018-11-03T16:33:22.058402100
600.4 Data i czas 2018-11-03T16:33:22.059403
-234.0 Data i czas 2018-11-03T16:33:22.060400600
2140.0 Data i czas 2018-11-03T16:33:22.062398700
60.0 Data i czas 2018-11-03T16:33:22.063398300
-75.32 Data i czas 2018-11-03T16:39:50.186932900
-400.0 Data i czas 2018-11-03T16:39:50.186932900
-546.6 Data i czas 2018-11-03T16:39:50.186932900
600.4 Data i czas 2018-11-03T16:39:50.186932900
-234.0 Data i czas 2018-11-03T16:39:50.202557300
2140.0 Data i czas 2018-11-03T16:39:50.204301700
60.0 Data i czas 2018-11-03T16:39:50.205300900
-75.32 Data i czas 2018-11-03T16:41:22.868435800
-400.0 Data i czas 2018-11-03T16:41:22.868435800
-546.6 Data i czas 2018-11-03T16:41:22.868435800
600.4 Data i czas 2018-11-03T16:41:22.868435800
-234.0 Data i czas 2018-11-03T16:41:22.868435800
2140.0 Data i czas 2018-11-03T16:41:22.868435800
60.0 Data i czas 2018-11-03T16:41:22.868435800
